<?xml version="1.0" encoding="UTF-8" standalone="no"?>
<!-- Created with Inkscape (http://www.inkscape.org/) -->

<svg
   xmlns:dc="http://purl.org/dc/elements/1.1/"
   xmlns:cc="http://creativecommons.org/ns#"
   xmlns:rdf="http://www.w3.org/1999/02/22-rdf-syntax-ns#"
   xmlns:svg="http://www.w3.org/2000/svg"
   xmlns="http://www.w3.org/2000/svg"
   xmlns:sodipodi="http://sodipodi.sourceforge.net/DTD/sodipodi-0.dtd"
   xmlns:inkscape="http://www.inkscape.org/namespaces/inkscape"
   width="211.19"
   height="211.19"
   id="svg2"
   version="1.1"
   inkscape:version="0.48.3.1 r9886"
   sodipodi:docname="state.svg">
  <defs
     id="defs4" />
  <sodipodi:namedview
     id="base"
     pagecolor="#ffffff"
     bordercolor="#666666"
     borderopacity="1.0"
     inkscape:pageopacity="0.0"
     inkscape:pageshadow="2"
     inkscape:zoom="1.979899"
     inkscape:cx="-30.880261"
     inkscape:cy="81.331567"
     inkscape:document-units="px"
     inkscape:current-layer="layer1"
     showgrid="false"
     fit-margin-top="0"
     fit-margin-left="0"
     fit-margin-right="0"
     fit-margin-bottom="0"
     inkscape:window-width="1920"
     inkscape:window-height="998"
     inkscape:window-x="0"
     inkscape:window-y="24"
     inkscape:window-maximized="1"
     inkscape:object-nodes="true"
     inkscape:object-paths="false"
     inkscape:snap-bbox="false"
     inkscape:snap-object-midpoints="true" />
  <metadata
     id="metadata7">
    <rdf:RDF>
      <cc:Work
         rdf:about="">
        <dc:format>image/svg+xml</dc:format>
        <dc:type
           rdf:resource="http://purl.org/dc/dcmitype/StillImage" />
        <dc:title></dc:title>
      </cc:Work>
    </rdf:RDF>
  </metadata>
  <g
     inkscape:label="Ebene 1"
     inkscape:groupmode="layer"
     id="layer1"
     transform="translate(-141.65991,-89.235822)">
    <g
       style="font-size:86.84276581px;font-style:normal;font-weight:normal;line-height:125%;letter-spacing:0px;word-spacing:0px;fill:#2d1ac9;fill-opacity:1;stroke:#000000;stroke-width:3;stroke-miterlimit:4;stroke-opacity:1;stroke-dasharray:none;font-family:Sans"
       id="text3267"
       transform="translate(-1.0101525,-2.5253813)">
      <path
         d="m 204.61076,230.39747 c -2.99658,1.5548 -6.12032,2.72797 -9.37122,3.51951 -3.25099,0.79153 -6.64328,1.1873 -10.17688,1.1873 -10.54442,0 -18.89794,-2.93999 -25.06059,-8.81997 -6.16267,-5.90823 -9.24401,-13.90839 -9.244,-24.00049 -1e-5,-10.12031 3.08133,-18.12046 9.244,-24.00049 6.16265,-5.90819 14.51617,-8.86231 25.06059,-8.86237 3.5336,6e-5 6.92589,0.39583 10.17688,1.1873 3.2509,0.7916 6.37464,1.96477 9.37122,3.51951 l 0,13.10274 c -3.02485,-2.0636 -6.00724,-3.576 -8.94718,-4.5372 -2.94003,-0.96109 -6.0355,-1.44167 -9.28641,-1.44172 -5.82347,5e-5 -10.40307,1.86581 -13.7388,5.59729 -3.33578,3.73156 -5.00365,8.87654 -5.00363,15.43494 -2e-5,6.53019 1.66785,11.66104 5.00363,15.39254 3.33573,3.73154 7.91533,5.5973 13.7388,5.59729 3.25091,1e-5 6.34638,-0.48056 9.28641,-1.44173 2.93994,-0.96113 5.92233,-2.47353 8.94718,-4.53719 l 0,13.10274"
         style="font-weight:bold;fill:#2d1ac9;stroke:#000000;stroke-width:3;stroke-miterlimit:4;stroke-opacity:1;stroke-dasharray:none;-inkscape-font-specification:Sans Bold"
         id="path4040"
         inkscape:connector-curvature="0" />
      <path
         d="m 251.63646,179.42823 0,22.21954 22.13473,0 0,10.00727 -22.13473,0 0,22.21953 -10.09208,0 0,-22.21953 -22.13473,0 0,-10.00727 22.13473,0 0,-22.21954 10.09208,0"
         style="font-weight:bold;fill:#2d1ac9;stroke:#000000;stroke-width:3;stroke-miterlimit:4;stroke-opacity:1;stroke-dasharray:none;-inkscape-font-specification:Sans Bold"
         id="path4042"
         inkscape:connector-curvature="0" />
      <path
         d="m 324.4012,179.42823 0,22.21954 22.13473,0 0,10.00727 -22.13473,0 0,22.21953 -10.09208,0 0,-22.21953 -22.13472,0 0,-10.00727 22.13472,0 0,-22.21954 10.09208,0"
         style="font-weight:bold;fill:#2d1ac9;stroke:#000000;stroke-width:3;stroke-miterlimit:4;stroke-opacity:1;stroke-dasharray:none;-inkscape-font-specification:Sans Bold"
         id="path4044"
         inkscape:connector-curvature="0" />
    </g>
  </g>
</svg>
