<?xml version="1.0" encoding="UTF-8" standalone="no"?>
<!-- Created with Inkscape (http://www.inkscape.org/) -->

<svg
   xmlns:dc="http://purl.org/dc/elements/1.1/"
   xmlns:cc="http://creativecommons.org/ns#"
   xmlns:rdf="http://www.w3.org/1999/02/22-rdf-syntax-ns#"
   xmlns:svg="http://www.w3.org/2000/svg"
   xmlns="http://www.w3.org/2000/svg"
   xmlns:sodipodi="http://sodipodi.sourceforge.net/DTD/sodipodi-0.dtd"
   xmlns:inkscape="http://www.inkscape.org/namespaces/inkscape"
   width="299.73236"
   height="274.36609"
   id="svg2"
   version="1.1"
   inkscape:version="0.48.3.1 r9886"
   sodipodi:docname="kinematic_icon.svg">
  <defs
     id="defs4" />
  <sodipodi:namedview
     id="base"
     pagecolor="#ffffff"
     bordercolor="#666666"
     borderopacity="1.0"
     inkscape:pageopacity="0.0"
     inkscape:pageshadow="2"
     inkscape:zoom="0.7"
     inkscape:cx="-385.03244"
     inkscape:cy="61.847481"
     inkscape:document-units="px"
     inkscape:current-layer="layer1"
     showgrid="false"
     inkscape:snap-object-midpoints="true"
     inkscape:object-nodes="true"
     fit-margin-top="0"
     fit-margin-left="0"
     fit-margin-right="0"
     fit-margin-bottom="0"
     inkscape:window-width="1920"
     inkscape:window-height="998"
     inkscape:window-x="0"
     inkscape:window-y="24"
     inkscape:window-maximized="1" />
  <metadata
     id="metadata7">
    <rdf:RDF>
      <cc:Work
         rdf:about="">
        <dc:format>image/svg+xml</dc:format>
        <dc:type
           rdf:resource="http://purl.org/dc/dcmitype/StillImage" />
        <dc:title />
      </cc:Work>
    </rdf:RDF>
  </metadata>
  <g
     inkscape:label="Ebene 1"
     inkscape:groupmode="layer"
     id="layer1"
     transform="translate(-80.76765,-257.32185)">
    <path
       style="fill:none;stroke:#000000;stroke-width:40;stroke-linecap:butt;stroke-linejoin:miter;stroke-miterlimit:4;stroke-opacity:1;stroke-dasharray:none"
       d="M 137.24438,431.16129 214.28571,313.79075 257.14286,475.21933 367.14285,376.6479"
       id="path2985"
       inkscape:connector-curvature="0"
       sodipodi:nodetypes="cccc" />
    <path
       sodipodi:type="arc"
       style="color:#000000;fill:#7f9cff;fill-opacity:1;stroke:#000000;stroke-width:20;stroke-opacity:1;marker:none;visibility:visible;display:inline;overflow:visible;enable-background:accumulate"
       id="path3755"
       sodipodi:cx="168.69548"
       sodipodi:cy="285.6564"
       sodipodi:rx="46.467018"
       sodipodi:ry="46.467018"
       d="m 215.1625,285.6564 c 0,25.66303 -20.80399,46.46702 -46.46702,46.46702 -25.66303,0 -46.46702,-20.80399 -46.46702,-46.46702 0,-25.66302 20.80399,-46.46702 46.46702,-46.46702 25.66303,0 46.46702,20.804 46.46702,46.46702 z"
       transform="translate(45.59023,28.134347)" />
    <path
       sodipodi:type="arc"
       style="color:#000000;fill:#7f9cff;fill-opacity:1;stroke:#000000;stroke-width:20;stroke-opacity:1;marker:none;visibility:visible;display:inline;overflow:visible;enable-background:accumulate"
       id="path3755-1"
       sodipodi:cx="168.69548"
       sodipodi:cy="285.6564"
       sodipodi:rx="46.467018"
       sodipodi:ry="46.467018"
       d="m 215.1625,285.6564 c 0,25.66303 -20.80399,46.46702 -46.46702,46.46702 -25.66303,0 -46.46702,-20.80399 -46.46702,-46.46702 0,-25.66302 20.80399,-46.46702 46.46702,-46.46702 25.66303,0 46.46702,20.804 46.46702,46.46702 z"
       transform="translate(88.44738,189.56293)" />
    <path
       sodipodi:type="arc"
       style="color:#000000;fill:#ff7f91;fill-opacity:1;stroke:#000000;stroke-width:20;stroke-opacity:1;marker:none;visibility:visible;display:inline;overflow:visible;enable-background:accumulate"
       id="path3755-8"
       sodipodi:cx="168.69548"
       sodipodi:cy="285.6564"
       sodipodi:rx="46.467018"
       sodipodi:ry="46.467018"
       d="m 215.1625,285.6564 c 0,25.66303 -20.80399,46.46702 -46.46702,46.46702 -25.66303,0 -46.46702,-20.80399 -46.46702,-46.46702 0,-25.66302 20.80399,-46.46702 46.46702,-46.46702 25.66303,0 46.46702,20.804 46.46702,46.46702 z"
       transform="translate(-31.4511,145.50489)" />
  </g>
</svg>
