<?xml version="1.0" encoding="UTF-8" standalone="no"?>
<!-- Created with Inkscape (http://www.inkscape.org/) --><svg height="128" id="svg2" inkscape:export-filename="/home/david/security-low.png" inkscape:export-xdpi="11.25" inkscape:export-ydpi="11.25" inkscape:output_extension="org.inkscape.output.svgz.inkscape" inkscape:version="0.45.1" sodipodi:docbase="/home/david" sodipodi:docname="security-low.svgz" sodipodi:version="0.32" version="1.0" width="128" xmlns="http://www.w3.org/2000/svg" xmlns:cc="http://web.resource.org/cc/" xmlns:dc="http://purl.org/dc/elements/1.1/" xmlns:i="http://ns.adobe.com/AdobeIllustrator/10.0/" xmlns:inkscape="http://www.inkscape.org/namespaces/inkscape" xmlns:rdf="http://www.w3.org/1999/02/22-rdf-syntax-ns#" xmlns:sodipodi="http://sodipodi.sourceforge.net/DTD/sodipodi-0.dtd" xmlns:svg="http://www.w3.org/2000/svg" xmlns:xlink="http://www.w3.org/1999/xlink">
  <metadata>
    <rdf:RDF xmlns:cc="http://web.resource.org/cc/" xmlns:dc="http://purl.org/dc/elements/1.1/" xmlns:rdf="http://www.w3.org/1999/02/22-rdf-syntax-ns#">
      <cc:Work rdf:about="">
        <dc:title></dc:title>
        <dc:description></dc:description>
        <dc:subject>
          <rdf:Bag>
            <rdf:li>unsorted</rdf:li>
          </rdf:Bag>
        </dc:subject>
        <dc:publisher>
          <cc:Agent rdf:about="http://www.openclipart.org/">
            <dc:title>Open Clip Art Library, Source: Oxygen Icons, Source: Oxygen Icons, Source: Oxygen Icons, Source: Oxygen Icons</dc:title>
          </cc:Agent>
        </dc:publisher>
        <dc:creator>
          <cc:Agent>
            <dc:title></dc:title>
          </cc:Agent>
        </dc:creator>
        <dc:rights>
          <cc:Agent>
            <dc:title></dc:title>
          </cc:Agent>
        </dc:rights>
        <dc:date></dc:date>
        <dc:format>image/svg+xml</dc:format>
        <dc:type rdf:resource="http://purl.org/dc/dcmitype/StillImage"/>
        <cc:license rdf:resource="http://creativecommons.org/licenses/by-sa/3.0/ or http://creativecommons.org/licenses/LGPL/2.1/"/>
        <dc:language>en</dc:language>
      </cc:Work>
    </rdf:RDF>
  </metadata>
  <defs id="defs4">
    <linearGradient id="linearGradient3625" inkscape:collect="always">
      <stop id="stop3627" offset="0" style="stop-color:#590000;stop-opacity:1;"/>
      <stop id="stop3629" offset="1" style="stop-color:#590000;stop-opacity:0;"/>
    </linearGradient>
    <linearGradient id="linearGradient3549" inkscape:collect="always">
      <stop id="stop3551" offset="0" style="stop-color:#ffffff;stop-opacity:1;"/>
      <stop id="stop3553" offset="1" style="stop-color:#ffffff;stop-opacity:0;"/>
    </linearGradient>
    <linearGradient id="linearGradient3425" inkscape:collect="always">
      <stop id="stop3427" offset="0" style="stop-color:#004d00;stop-opacity:1;"/>
      <stop id="stop3429" offset="1" style="stop-color:#004d00;stop-opacity:0;"/>
    </linearGradient>
    <linearGradient id="linearGradient3342" inkscape:collect="always">
      <stop id="stop3344" offset="0" style="stop-color:#ff3313;stop-opacity:1"/>
      <stop id="stop3346" offset="1" style="stop-color:#ff0000;stop-opacity:0"/>
    </linearGradient>
    <linearGradient id="linearGradient3328" inkscape:collect="always">
      <stop id="stop3330" offset="0" style="stop-color:#ffffff;stop-opacity:1;"/>
      <stop id="stop3332" offset="1" style="stop-color:#ffffff;stop-opacity:0;"/>
    </linearGradient>
    <linearGradient id="linearGradient3315" inkscape:collect="always">
      <stop id="stop3317" offset="0" style="stop-color:#ffffff;stop-opacity:1;"/>
      <stop id="stop3319" offset="1" style="stop-color:#ffffff;stop-opacity:0;"/>
    </linearGradient>
    <linearGradient id="linearGradient3298" inkscape:collect="always">
      <stop id="stop3300" offset="0" style="stop-color:#000000;stop-opacity:1;"/>
      <stop id="stop3302" offset="1" style="stop-color:#000000;stop-opacity:0;"/>
    </linearGradient>
    <linearGradient id="linearGradient3194" inkscape:collect="always">
      <stop id="stop3196" offset="0" style="stop-color:#000000;stop-opacity:1;"/>
      <stop id="stop3198" offset="1" style="stop-color:#000000;stop-opacity:0;"/>
    </linearGradient>
    <linearGradient id="linearGradient3162" inkscape:collect="always">
      <stop id="stop3164" offset="0" style="stop-color:#ffffff;stop-opacity:1;"/>
      <stop id="stop3166" offset="1" style="stop-color:#ffffff;stop-opacity:0;"/>
    </linearGradient>
    <linearGradient id="linearGradient3149" inkscape:collect="always">
      <stop id="stop3151" offset="0" style="stop-color:#ff0000;stop-opacity:1"/>
      <stop id="stop3153" offset="1" style="stop-color:#590000;stop-opacity:1"/>
    </linearGradient>
    <linearGradient id="linearGradient3137" inkscape:collect="always">
      <stop id="stop3139" offset="0" style="stop-color:#eeeeee;stop-opacity:1;"/>
      <stop id="stop3141" offset="1" style="stop-color:#babdb6;stop-opacity:1"/>
    </linearGradient>
    <radialGradient cx="64" cy="64" fx="64" fy="64" gradientTransform="matrix(0.852937,0,0,1.8124371,9.412035,-51.995978)" gradientUnits="userSpaceOnUse" id="radialGradient3143" inkscape:collect="always" r="44" xlink:href="#linearGradient3137"/>
    <radialGradient cx="64" cy="52.322273" fx="63.844189" fy="47.808315" gradientTransform="matrix(1.2978099,0,0,2.5457098,-19.059837,-81.93666)" gradientUnits="userSpaceOnUse" id="radialGradient3155" inkscape:collect="always" r="36" xlink:href="#linearGradient3149"/>
    <linearGradient gradientUnits="userSpaceOnUse" id="linearGradient3168" inkscape:collect="always" x1="65.131119" x2="65.131119" xlink:href="#linearGradient3162" y1="9.5732002" y2="60.543098"/>
    <linearGradient gradientUnits="userSpaceOnUse" id="linearGradient3200" inkscape:collect="always" x1="99.873619" x2="59.34045" xlink:href="#linearGradient3194" y1="75.121643" y2="64.004425"/>
    <clipPath clipPathUnits="userSpaceOnUse" id="clipPath3206">
      <path d="M 57.659091,25.932002 C 49.908853,33.678878 33.667605,40.58867 28,42.164006 C 28,66.496955 44.32661,103.27273 64,103.27273 C 83.629515,103.27273 100,66.496955 100,42.164006 C 94.332396,40.58867 78.091147,33.678878 70.340909,25.932002 C 68.14204,24.325219 59.858047,24.326175 57.659091,25.932002 z " id="path3208" sodipodi:nodetypes="ccsccc" style="fill:#000000;fill-opacity:1;fill-rule:evenodd;stroke:none;stroke-width:6;stroke-linecap:butt;stroke-linejoin:miter;stroke-miterlimit:4;stroke-dasharray:none;stroke-opacity:1"/>
    </clipPath>
    <filter height="1.2277228" id="filter3294" inkscape:collect="always" width="1.2484248" x="-0.12421242" y="-0.11386138">
      <feGaussianBlur id="feGaussianBlur3296" inkscape:collect="always" stdDeviation="3.7263727"/>
    </filter>
    <linearGradient gradientUnits="userSpaceOnUse" id="linearGradient3304" inkscape:collect="always" x1="64" x2="64" xlink:href="#linearGradient3298" y1="24.727274" y2="85"/>
    <linearGradient gradientUnits="userSpaceOnUse" id="linearGradient3321" inkscape:collect="always" x1="66.21801" x2="66.21801" xlink:href="#linearGradient3315" y1="111.9475" y2="35.046722"/>
    <linearGradient gradientUnits="userSpaceOnUse" id="linearGradient3334" inkscape:collect="always" x1="65.497627" x2="65.497627" xlink:href="#linearGradient3328" y1="17.6523" y2="34.035549"/>
    <radialGradient cx="64" cy="64.000002" fx="63.595577" fy="73.4534" gradientTransform="matrix(1,0,0,1.0909091,0,-5.8181848)" gradientUnits="userSpaceOnUse" id="radialGradient3348" inkscape:collect="always" r="24.06951" xlink:href="#linearGradient3342"/>
    <filter height="1.330198" id="filter3378" inkscape:collect="always" width="1.360216" x="-0.18010801" y="-0.16509901">
      <feGaussianBlur id="feGaussianBlur3380" inkscape:collect="always" stdDeviation="3.612593"/>
    </filter>
    <linearGradient gradientTransform="matrix(1.017858,0,0,1.017858,-1.142857,-8.267858)" gradientUnits="userSpaceOnUse" id="XMLID_2_" x1="64.000504" x2="64.000504" y1="113" y2="29.0005">
      <stop id="stop20" offset="0" style="stop-color:#00bf00;stop-opacity:1;"/>
      <stop id="stop22" offset="1" style="stop-color:#009300;stop-opacity:1;"/>
    </linearGradient>
    <foreignObject height="1" id="foreignObject7" requiredExtensions="http://ns.adobe.com/AdobeIllustrator/10.0/" width="1" x="0" y="0">
      <i:pgfRef xlink:href="#adobe_illustrator_pgf"/>
    </foreignObject>
    <radialGradient cx="-100.00002" cy="21" fx="-100.00002" fy="33.064209" gradientTransform="matrix(1.538858,0,0,1.1842271,53.885815,-3.8687691)" gradientUnits="userSpaceOnUse" id="radialGradient3431" inkscape:collect="always" r="25" xlink:href="#linearGradient3425"/>
    <filter id="filter3449" inkscape:collect="always">
      <feGaussianBlur id="feGaussianBlur3451" inkscape:collect="always" stdDeviation="0.885"/>
    </filter>
    <linearGradient gradientUnits="userSpaceOnUse" id="linearGradient3492" inkscape:collect="always" x1="65.131119" x2="65.131119" xlink:href="#linearGradient3162" y1="9.5732002" y2="60.543098"/>
    <filter id="filter3521" inkscape:collect="always">
      <feGaussianBlur id="feGaussianBlur3523" inkscape:collect="always" stdDeviation="1.92"/>
    </filter>
    <clipPath clipPathUnits="userSpaceOnUse" id="clipPath3529">
      <path d="M 56.25,17.472446 C 46.777487,26.94085 26.927072,35.386153 20,37.311562 C 20,67.051834 39.954744,112 64,112 C 87.99163,112 108,67.051834 108,37.311562 C 101.07293,35.386153 81.222513,26.94085 71.75,17.472446 C 69.062493,15.508601 58.937612,15.509769 56.25,17.472446 z " id="path3531" sodipodi:nodetypes="ccsccc" style="opacity:0.36138617;fill:url(#linearGradient3533);fill-opacity:1;fill-rule:evenodd;stroke:none;stroke-width:1px;stroke-linecap:butt;stroke-linejoin:miter;stroke-opacity:1"/>
    </clipPath>
    <linearGradient gradientUnits="userSpaceOnUse" id="linearGradient3533" inkscape:collect="always" x1="99.873619" x2="59.34045" xlink:href="#linearGradient3194" y1="75.121643" y2="64.004425"/>
    <filter id="filter3543" inkscape:collect="always">
      <feGaussianBlur id="feGaussianBlur3545" inkscape:collect="always" stdDeviation="1.38"/>
    </filter>
    <radialGradient cx="64" cy="64" fx="64.000015" fy="50.562386" gradientTransform="matrix(0.4806487,0,0,3.4544468,33.238485,-157.08459)" gradientUnits="userSpaceOnUse" id="radialGradient3555" inkscape:collect="always" r="44" xlink:href="#linearGradient3549"/>
    <linearGradient gradientTransform="matrix(0,1.022977,-1.022977,0,111.9686,137.8125)" gradientUnits="userSpaceOnUse" id="linearGradient1980" inkscape:collect="always" x1="-88.058083" x2="-45.096584" xlink:href="#linearGradient3711" y1="-131.93112" y2="-131.93112"/>
    <radialGradient cx="343.99899" cy="92" fx="343.99899" fy="92" gradientUnits="userSpaceOnUse" id="radialGradient1978" inkscape:collect="always" r="36" xlink:href="#linearGradient3711"/>
    <linearGradient gradientTransform="matrix(0,1,-1,0,-39.9985,140.0029)" gradientUnits="userSpaceOnUse" id="linearGradient1976" inkscape:collect="always" x1="-70.002899" x2="-11.91648" xlink:href="#linearGradient26907" y1="-383.9971" y2="-383.9971"/>
    <linearGradient gradientTransform="matrix(0,1,-1,0,-39.9985,140.0029)" gradientUnits="userSpaceOnUse" id="linearGradient3711" x1="-84.002403" x2="-23.516129" y1="-383.9971" y2="-383.9975">
      <stop id="stop3713" offset="0" style="stop-color:white;stop-opacity:1;"/>
      <stop id="stop3715" offset="1" style="stop-color:white;stop-opacity:0;"/>
    </linearGradient>
    <linearGradient gradientTransform="matrix(0,1,-1,0,-39.9985,140.0029)" gradientUnits="userSpaceOnUse" id="linearGradient26907" x1="-84.002403" x2="-12.0029" y1="-383.9971" y2="-383.9971">
      <stop id="stop26909" offset="0" style="stop-color:#888a85;stop-opacity:1;"/>
      <stop id="stop26911" offset="1" style="stop-color:#2e3436;stop-opacity:1;"/>
    </linearGradient>
    <radialGradient cx="64" cy="64" fx="64.20285" fy="67.042786" gradientTransform="matrix(1.3145822,0,0,1.3145822,-20.133258,-20.133258)" gradientUnits="userSpaceOnUse" id="radialGradient3631" inkscape:collect="always" r="23.318551" xlink:href="#linearGradient3625"/>
    <filter id="filter3653" inkscape:collect="always">
      <feGaussianBlur id="feGaussianBlur3655" inkscape:collect="always" stdDeviation="0.93274204"/>
    </filter>
  </defs>
  <sodipodi:namedview bordercolor="#666666" borderopacity="1.0" gridempspacing="4" gridspacingx="4px" gridspacingy="4px" gridtolerance="10000" guidetolerance="10" height="128px" id="base" inkscape:current-layer="layer1" inkscape:cx="64" inkscape:cy="64" inkscape:document-units="px" inkscape:pageopacity="0.0" inkscape:pageshadow="2" inkscape:window-height="734" inkscape:window-width="794" inkscape:window-x="0" inkscape:window-y="0" inkscape:zoom="4.9296875" objecttolerance="10" pagecolor="#ffffff" showgrid="false" width="128px"/>
  <g id="layer1" inkscape:groupmode="layer" inkscape:label="Layer 1">
    <path d="M 56.25,19.472446 C 46.777487,28.94085 26.927072,37.386153 20,39.311562 C 20,69.051834 39.954744,114 64,114 C 87.99163,114 108,69.051834 108,39.311562 C 101.07293,37.386153 81.222513,28.94085 71.75,19.472446 C 69.062493,17.508601 58.937612,17.509769 56.25,19.472446 z " id="path3557" sodipodi:nodetypes="ccsccc" style="opacity:0.64356432;fill:#000000;fill-opacity:1;fill-rule:evenodd;stroke:#000000;stroke-width:5.59806108;stroke-linecap:round;stroke-linejoin:round;stroke-miterlimit:4;stroke-dasharray:none;stroke-opacity:1;filter:url(#filter3521)" transform="matrix(0.7370454,0,0,0.6927083,16.829091,32.53125)"/>
    <path d="M 56.25,18.472446 C 46.777487,27.94085 26.927072,36.386153 20,38.311562 C 20,68.051834 39.954744,113 64,113 C 87.99163,113 108,68.051834 108,38.311562 C 101.07293,36.386153 81.222513,27.94085 71.75,18.472446 C 69.062493,16.508601 58.937612,16.509769 56.25,18.472446 z " id="path3170" sodipodi:nodetypes="ccsccc" style="opacity:0.64356432;fill:#000000;fill-opacity:1;fill-rule:evenodd;stroke:#000000;stroke-width:4;stroke-linecap:round;stroke-linejoin:round;stroke-miterlimit:4;stroke-dasharray:none;stroke-opacity:1;filter:url(#filter3521)"/>
    <path d="M 56.25,17.472446 C 46.777487,26.94085 26.927072,35.386153 20,37.311562 C 20,67.051834 39.954744,112 64,112 C 87.99163,112 108,67.051834 108,37.311562 C 101.07293,35.386153 81.222513,26.94085 71.75,17.472446 C 69.062493,15.508601 58.937612,15.509769 56.25,17.472446 z " id="path2160" sodipodi:nodetypes="ccsccc" style="fill:url(#radialGradient3143);fill-opacity:1.0;fill-rule:evenodd;stroke:none;stroke-width:1px;stroke-linecap:butt;stroke-linejoin:miter;stroke-opacity:1"/>
    <path clip-path="url(#clipPath3529)" d="M 56.25,17.472446 C 46.777487,26.94085 26.927072,35.386153 20,37.311562 C 20,67.051834 39.954744,112 64,112 C 87.99163,112 108,67.051834 108,37.311562 C 101.07293,35.386153 81.222513,26.94085 71.75,17.472446 C 69.062493,15.508601 58.937612,15.509769 56.25,17.472446 z " id="path3525" sodipodi:nodetypes="ccsccc" style="fill:none;fill-opacity:1.0;fill-rule:evenodd;stroke:#000000;stroke-width:2;stroke-linecap:butt;stroke-linejoin:miter;stroke-opacity:1;opacity:0.35643564;stroke-miterlimit:4;stroke-dasharray:none;filter:url(#filter3543)"/>
    <path d="M 56.25,17.472446 C 46.777487,26.94085 26.927072,35.386153 20,37.311562 C 20,67.051834 39.954744,112 64,112 C 87.99163,112 108,67.051834 108,37.311562 C 101.07293,35.386153 81.222513,26.94085 71.75,17.472446 C 69.062493,15.508601 58.937612,15.509769 56.25,17.472446 z " id="path3192" sodipodi:nodetypes="ccsccc" style="fill:url(#linearGradient3200);fill-opacity:1.0;fill-rule:evenodd;stroke:none;stroke-width:1px;stroke-linecap:butt;stroke-linejoin:miter;stroke-opacity:1;opacity:0.36138614"/>
    <path d="M 64 16 C 60.79689 16.000146 57.593806 16.487412 56.25 17.46875 C 46.777487 26.937154 26.927072 35.387091 20 37.3125 C 20 37.588342 20.027829 37.877839 20.03125 38.15625 C 30.638901 44.222565 46.403755 48.062499 64 48.0625 C 81.596246 48.0625 97.361099 44.222566 107.96875 38.15625 C 107.97218 37.877839 108 37.588342 108 37.3125 C 101.07293 35.387091 81.222513 26.937154 71.75 17.46875 C 70.406247 16.486827 67.20311 15.999854 64 16 z " id="path3157" style="fill:url(#linearGradient3168);fill-opacity:1.0;fill-rule:evenodd;stroke:none;stroke-width:1px;stroke-linecap:butt;stroke-linejoin:miter;stroke-opacity:1;opacity:0.95544554"/>
    <path d="M 20 37.3125 C 20 37.588342 20.027829 37.877839 20.03125 38.15625 C 30.638901 44.222565 46.403755 48.062499 64 48.0625 C 81.596246 48.0625 97.361099 44.222566 107.96875 38.15625 C 107.97218 37.877839 108 37.588342 108 37.3125 C 107.99139 37.310106 107.9774 37.314914 107.96875 37.3125 C 107.9628 37.427775 107.97015 37.542979 107.96875 37.65625 C 97.361099 43.722566 81.596246 47.5625 64 47.5625 C 46.403755 47.562499 30.638901 43.722565 20.03125 37.65625 C 20.029858 37.542979 20.037204 37.427775 20.03125 37.3125 C 20.022596 37.314914 20.008614 37.310106 20 37.3125 z " id="path3490" style="opacity:0.95544553;fill:url(#linearGradient3492);fill-opacity:1;fill-rule:evenodd;stroke:none;stroke-width:1px;stroke-linecap:butt;stroke-linejoin:miter;stroke-opacity:1"/>
    <path d="M 56.25,17.472446 C 46.777487,26.94085 26.927072,35.386153 20,37.311562 C 20,67.051834 39.954744,112 64,112 C 87.99163,112 108,67.051834 108,37.311562 C 101.07293,35.386153 81.222513,26.94085 71.75,17.472446 C 69.062493,15.508601 58.937612,15.509769 56.25,17.472446 z " id="path3547" sodipodi:nodetypes="ccsccc" style="fill:url(#radialGradient3555);fill-opacity:1.0;fill-rule:evenodd;stroke:none;stroke-width:1px;stroke-linecap:butt;stroke-linejoin:miter;stroke-opacity:1;opacity:1"/>
    <path d="M 57.659091,25.932002 C 49.908853,33.678878 33.667605,40.58867 28,42.164006 C 28,66.496955 44.32661,103.27273 64,103.27273 C 83.629515,103.27273 100,66.496955 100,42.164006 C 94.332396,40.58867 78.091147,33.678878 70.340909,25.932002 C 68.14204,24.325219 59.858047,24.326175 57.659091,25.932002 z " id="path3145" sodipodi:nodetypes="ccsccc" style="fill:url(#radialGradient3155);fill-opacity:1.0;fill-rule:evenodd;stroke:none;stroke-width:1px;stroke-linecap:butt;stroke-linejoin:miter;stroke-opacity:1"/>
    <path clip-path="url(#clipPath3206)" d="M 57.659091,25.932002 C 49.908853,33.678878 33.667605,40.58867 28,42.164006 C 28,66.496955 44.32661,103.27273 64,103.27273 C 83.629515,103.27273 100,66.496955 100,42.164006 C 94.332396,40.58867 78.091147,33.678878 70.340909,25.932002 C 68.14204,24.325219 59.858047,24.326175 57.659091,25.932002 z " id="path3202" sodipodi:nodetypes="ccsccc" style="fill:none;fill-opacity:1.0;fill-rule:evenodd;stroke:url(#linearGradient3304);stroke-width:6;stroke-linecap:butt;stroke-linejoin:miter;stroke-opacity:1;stroke-miterlimit:4;stroke-dasharray:none;filter:url(#filter3294);opacity:0.51980198"/>
    <path d="M 28,42.15625 C 28,66.4892 44.32661,103.28125 64,103.28125 C 83.629515,103.28125 100,66.489199 100,42.15625 C 99.992227,42.15409 99.976563,42.158431 99.96875,42.15625 C 99.323917,66.470372 83.231686,102.28125 64,102.28125 C 44.725328,102.28125 28.674393,66.470373 28.03125,42.15625 C 28.023437,42.158431 28.007773,42.15409 28,42.15625 z " id="path3306" sodipodi:nodetypes="csccscc" style="fill:url(#linearGradient3321);fill-opacity:1.0;fill-rule:evenodd;stroke:none;stroke-width:1px;stroke-linecap:butt;stroke-linejoin:miter;stroke-opacity:1"/>
    <path d="M 64 16 C 60.79689 16.000146 57.593806 16.487412 56.25 17.46875 C 46.777487 26.937154 26.927072 35.387091 20 37.3125 C 20 37.639383 20.02645 37.982023 20.03125 38.3125 C 26.981773 36.373299 46.789266 27.925379 56.25 18.46875 C 58.937612 16.506073 69.062493 16.504905 71.75 18.46875 C 81.210734 27.92538 101.01823 36.373299 107.96875 38.3125 C 107.97356 37.982023 108 37.639383 108 37.3125 C 101.07293 35.387091 81.222513 26.937154 71.75 17.46875 C 70.406247 16.486827 67.20311 15.999854 64 16 z " id="path3323" style="fill:url(#linearGradient3334);fill-opacity:1.0;fill-rule:evenodd;stroke:none;stroke-width:1px;stroke-linecap:butt;stroke-linejoin:miter;stroke-opacity:1;opacity:0.88613861"/>
    <path d="M 59.760484,38.547832 C 54.578694,43.727374 43.719836,48.347244 39.93049,49.400509 C 39.93049,65.669458 50.84642,90.25765 64,90.25765 C 77.124245,90.25765 88.06951,65.669458 88.06951,49.400509 C 84.280164,48.347244 73.421306,43.727374 68.239516,38.547832 C 66.769358,37.473541 61.230701,37.47418 59.760484,38.547832 z " id="path3340" sodipodi:nodetypes="ccsccc" style="fill:url(#radialGradient3348);fill-opacity:1.0;fill-rule:evenodd;stroke:none;stroke-width:1px;stroke-linecap:butt;stroke-linejoin:miter;stroke-opacity:1;filter:url(#filter3378)"/>
    <path d="M 37.9801,115.62865 L 37.9801,112.83394 L 37.9801,115.62865 z " id="path2276" sodipodi:nodetypes="ccc" style="fill:#ffffff;fill-opacity:0.75688076;fill-rule:nonzero;stroke:none;stroke-width:0.5;stroke-linecap:round;stroke-linejoin:round;stroke-miterlimit:4;stroke-dasharray:none;stroke-dashoffset:4;stroke-opacity:1"/>
    <path d="M 42.681449,49.787632 L 57.140056,64.246239 L 42.681449,78.212368 L 49.787632,85.318551 L 64.000003,71.106186 L 78.212368,85.318551 L 85.318551,78.212368 L 71.106186,64.000003 L 85.318551,49.787632 L 78.458604,42.927685 L 64.246239,57.140056 L 49.787632,42.681449 L 42.681449,49.787632 z " id="path3623" sodipodi:nodetypes="ccccccccccccc" style="fill:none;fill-opacity:1;fill-rule:evenodd;stroke:url(#radialGradient3631);stroke-width:4.42063713;stroke-linecap:round;stroke-linejoin:round;stroke-miterlimit:4;stroke-opacity:1;filter:url(#filter3653)" transform="matrix(0.9048469,0,0,0.9048469,6.0897982,6.0897982)"/>
    <path d="M 44.709975,51.139983 L 57.792801,64.222809 L 44.709975,76.860017 L 51.139983,83.290025 L 64.000003,70.43001 L 76.860017,83.290025 L 83.290025,76.860017 L 70.43001,64.000003 L 83.290025,51.139983 L 77.082823,44.932781 L 64.222809,57.792801 L 51.139983,44.709975 L 44.709975,51.139983 z " id="rect3232" sodipodi:nodetypes="ccccccccccccc" style="fill:#ffffff;fill-opacity:1;fill-rule:evenodd;stroke:none;stroke-width:4;stroke-linecap:round;stroke-linejoin:round;stroke-miterlimit:4;stroke-opacity:1"/>
  </g>
</svg>
